code;annees;somme
200000172;2015;44.23655182703987
200000172;2019;41.820252473252324
200000172;2020;38.5621264942148
200000172;2021;42.904561294630824
200000172;2022;42.950998716815164
200011773;2015;94.51298649768745
200011773;2019;95.22789239843259
200011773;2020;87.46029419147285
200011773;2021;98.98708292499543
200011773;2022;98.96243204252735
200016905;2015;23.477288901555646
200016905;2019;24.96860320977437
200016905;2020;22.878881442475407
200016905;2021;26.087145500276478
200016905;2022;25.913922711128357
200018166;2015;169.54298608252927
200018166;2019;164.08248227633402
200018166;2020;151.48732851342808
200018166;2021;166.98090282401628
200018166;2022;168.01912470199196
200023299;2015;28.40650316339693
200023299;2019;30.257052404187508
200023299;2020;27.902371243455793
200023299;2021;31.130392246158195
200023299;2022;31.5774134147041
200023372;2015;34.00969333059519
200023372;2019;34.5610713172196
200023372;2020;32.231966517511204
200023372;2021;35.99473055512104
200023372;2022;35.63759770251188
200029999;2015;30.913860624887608
200029999;2019;31.005183075529665
200029999;2020;28.46029647647242
200029999;2021;32.42599945544472
200029999;2022;32.94183048633849
200030658;2015;36.321897632616384
200030658;2019;36.39023686237208
200030658;2020;33.74862210100155
200030658;2021;37.27042110026963
200030658;2022;38.08053988376285
200033116;2015;57.12285538647633
200033116;2019;57.79679969232796
200033116;2020;53.58165529630254
200033116;2021;59.851012092583055
200033116;2022;59.48675352633106
200034098;2015;36.09578325966608
200034098;2019;37.068693903294076
200034098;2020;34.73127194385131
200034098;2021;39.11269817822714
200034098;2022;39.26319190196819
200034882;2015;92.46866434856196
200034882;2019;90.34718077951166
200034882;2020;83.35722439857469
200034882;2021;92.89043416129785
200034882;2022;92.41454658528059
200035129;2015;1.50663190779257
200035129;2019;1.5116196424436201
200035129;2020;1.38526278588383
200035129;2021;1.58332420319751
200035129;2022;1.61257426757576
200035202;2015;48.628121493005814
200035202;2019;49.24693866865315
200035202;2020;44.8382836878007
200035202;2021;50.76870746952902
200035202;2022;50.99602497909707
200035723;2015;0.441317237378873
200035723;2019;0.5343420030316169
200035723;2020;0.488873176771744
200035723;2021;0.558088284797189
200035723;2022;0.568070705928228
200035731;2015;134.23632039561528
200035731;2019;136.0821653485958
200035731;2020;122.50042723033982
200035731;2021;138.94469409554097
200035731;2022;138.19112771471222
200039808;2015;70.0616830759783
200039808;2019;73.78132513518025
200039808;2020;69.60386347602669
200039808;2021;74.20551480374442
200039808;2022;78.46664115286156
200039824;2015;31.39020520317053
200039824;2019;30.84416875007769
200039824;2020;28.164960471667982
200039824;2021;31.95397742742952
200039824;2022;32.194816351507825
200039832;2015;27.560779445280904
200039832;2019;27.902947268207406
200039832;2020;25.461736621666866
200039832;2021;28.927273943358696
200039832;2022;28.96193284244075
200040111;2015;44.20341130999111
200040111;2019;43.780732385913225
200040111;2020;40.72312504179225
200040111;2021;45.450021943315456
200040111;2022;46.006484898716046
200040350;2015;75.85183087921676
200040350;2019;76.55393982927656
200040350;2020;70.24609939926752
200040350;2021;79.89879441180626
200040350;2022;80.0413071443036
200040459;2015;85.08384843166996
200040459;2019;93.43836165678383
200040459;2020;81.85612144992314
200040459;2021;92.12391420155629
200040459;2022;93.15393744510742
200040491;2015;83.21376697237592
200040491;2019;87.3566879891931
200040491;2020;77.53595819053244
200040491;2021;88.05380530518896
200040491;2022;88.5671962924461
200040509;2015;25.894503417456356
200040509;2019;28.23677072641102
200040509;2020;25.103335709902744
200040509;2021;28.6219501164589
200040509;2022;28.862603534513756
200040566;2015;93.4433937505426
200040566;2019;94.47787187104207
200040566;2020;85.37963434343308
200040566;2021;97.12552985850246
200040566;2022;97.45550430593313
200040574;2015;73.15554452663825
200040574;2019;74.50648458632311
200040574;2020;69.52945124103461
200040574;2021;79.25933216083764
200040574;2022;80.14380106754523
200040590;2015;59.931248638961954
200040590;2019;60.28220194429207
200040590;2020;54.420165547134225
200040590;2021;61.80771204072897
200040590;2022;61.980524569173696
200040657;2015;59.08135935751627
200040657;2019;59.50437465870456
200040657;2020;55.812651939169655
200040657;2021;62.668520470140486
200040657;2022;63.200417016218346
200040681;2015;23.457951580617596
200040681;2019;24.31089337166955
200040681;2020;21.70497675014871
200040681;2021;24.689621080653307
200040681;2022;25.02740203341556
200040715;2015;385.6134828600625
200040715;2019;397.2287901444057
200040715;2020;366.56863065696126
200040715;2021;405.48010516405293
200040715;2022;328.05119389880014
200040798;2015;39.32908295448553
200040798;2019;41.85598964732645
200040798;2020;39.90881798240044
200040798;2021;44.8557166059541
200040798;2022;44.66143587293626
200041010;2015;358.3731394911341
200041010;2019;331.69615962569804
200041010;2020;345.16239108102513
200041010;2021;356.1734918062654
200041010;2022;362.52605335368366
200041366;2015;51.249974958882284
200041366;2019;51.05700404689811
200041366;2020;46.9589374880598
200041366;2021;53.389125329747806
200041366;2022;53.609516090096506
200041465;2015;45.62552433923245
200041465;2019;46.17014887033209
200041465;2020;41.68069123239279
200041465;2021;47.36898077384069
200041465;2022;47.2655670927539
200042497;2015;50.213909736908555
200042497;2019;52.27912638221645
200042497;2020;48.19398702821397
200042497;2021;55.16038511784319
200042497;2022;55.79940022394494
200042901;2015;62.584769335298205
200042901;2019;64.75181938997409
200042901;2020;57.39019026140196
200042901;2021;64.39223899335015
200042901;2022;65.69744379773117
200042935;2015;102.30887748743542
200042935;2019;101.02540323832511
200042935;2020;88.3263772254949
200042935;2021;100.27343243062272
200042935;2022;101.32572865924024
200046977;2015;742.1846381643913
200046977;2019;779.4626486100186
200046977;2020;698.580366186217
200046977;2021;819.1876121301907
200046977;2022;678.8474579792187
200059392;2015;123.12657504038346
200059392;2019;123.93136691290252
200059392;2020;112.93935123142754
200059392;2021;127.00985473793916
200059392;2022;128.41745984772166
200065886;2015;210.38629032057568
200065886;2019;213.58852568388647
200065886;2020;194.43648605636758
200065886;2021;221.11776523472514
200065886;2022;222.2566150487321
200065894;2015;105.54623229762846
200065894;2019;109.30868171564647
200065894;2020;99.01008751344679
200065894;2021;112.63034749194392
200065894;2022;112.99440005180516
200066587;2015;75.61347879666724
200066587;2019;76.5914210667092
200066587;2020;69.55426287707117
200066587;2021;78.96095296037286
200066587;2022;79.67498996176131
200066637;2015;44.057660733308836
200066637;2019;42.58885657740417
200066637;2020;39.05353089012901
200066637;2021;44.031197320760064
200066637;2022;44.238351143637985
200066660;2015;119.13433957019792
200066660;2019;118.22269462945965
200066660;2020;105.26875894405491
200066660;2021;117.23363279811143
200066660;2022;117.5308771743794
200066678;2015;65.5142238647767
200066678;2019;63.27981081236169
200066678;2020;57.697097244198154
200066678;2021;65.09581986291195
200066678;2022;65.17609729266276
200066793;2015;259.04314082172664
200066793;2019;274.4863483132581
200066793;2020;253.56061831327224
200066793;2021;285.47820951008686
200066793;2022;290.52031107483396
200067551;2015;106.59924939415929
200067551;2019;106.63046796934951
200067551;2020;99.50105117735707
200067551;2021;112.15273578161244
200067551;2022;112.1330282577899
200067627;2015;50.98577226743922
200067627;2019;52.02203377093106
200067627;2020;47.70014357080164
200067627;2021;54.51652917370347
200067627;2022;55.04310421414933
200067767;2015;28.07246639900477
200067767;2019;27.372359521116664
200067767;2020;24.876425287294467
200067767;2021;28.13197962519596
200067767;2022;28.426460089635523
200067817;2015;71.93363262567769
200067817;2019;73.04027000436177
200067817;2020;67.30703554075875
200067817;2021;76.72280192505822
200067817;2022;77.08581655023798
200068229;2015;58.282356352030824
200068229;2019;58.662457285646035
200068229;2020;53.460780062219115
200068229;2021;60.75696387931097
200068229;2022;61.40820498246072
200068542;2015;274.97639898962564
200068542;2019;358.6630976619004
200068542;2020;346.8883236615936
200068542;2021;386.6423132490624
200068542;2022;421.8267563848403
200068567;2015;103.41056545714129
200068567;2019;105.38882443153172
200068567;2020;97.4528206263844
200068567;2021;111.22474672074227
200068567;2022;112.90218889379332
200068674;2015;97.0131666300123
200068674;2019;98.00698806961034
200068674;2020;91.31635902194091
200068674;2021;101.8738000080746
200068674;2022;102.46036195621437
200068765;2015;1.6448501541775962
200068765;2019;1.6312204988191679
200068765;2020;1.4834377755869346
200068765;2021;1.6882545510996527
200068765;2022;1.6700421339723028
200068781;2015;248.79346946978404
200068781;2019;251.89651447932027
200068781;2020;230.6819311565521
200068781;2021;262.7176292332989
200068781;2022;263.60259381991716
200068997;2015;117.2537457753031
200068997;2019;114.87068365848775
200068997;2020;107.13407565201568
200068997;2021;119.74595754611575
200068997;2022;120.17211939152756
200069110;2015;133.8350742089129
200069110;2019;135.99848214233472
200069110;2020;122.59252912918816
200069110;2021;136.15673489464632
200069110;2022;135.62308142169263
200069169;2015;45.00147170116999
200069169;2019;44.51118026668482
200069169;2020;40.7406235336633
200069169;2021;45.72964946452669
200069169;2022;45.82689536202475
200069177;2015;73.01724891976795
200069177;2019;74.59803600478281
200069177;2020;68.3890712110517
200069177;2021;78.09344937687992
200069177;2022;78.46516434417252
200069193;2015;67.01130980411459
200069193;2019;68.5012021178095
200069193;2020;62.67520399712996
200069193;2021;71.538806168653
200069193;2022;71.92577762460785
200070118;2015;32.63333082714486
200070118;2019;33.542038021440064
200070118;2020;30.769807175163535
200070118;2021;35.10985939990144
200070118;2022;35.631638186637666
200070308;2015;0.520745232303043
200070308;2019;0.509423429703729
200070308;2020;0.474654397962713
200070308;2021;0.5429200786505459
200070308;2022;0.541715800937118
200070340;2015;27.84339523526444
200070340;2019;28.387427971375658
200070340;2020;26.715226810027
200070340;2021;29.95091698439792
200070340;2022;29.912169917989758
200070407;2015;115.13136790957077
200070407;2019;122.39240323135789
200070407;2020;110.91435816231667
200070407;2021;126.22950651995286
200070407;2022;126.38225669454636
200070431;2015;95.48706531769226
200070431;2019;94.7170833767326
200070431;2020;87.82560592370585
200070431;2021;97.13558499148216
200070431;2022;97.09864504040533
200070464;2015;30.90239053151034
200070464;2019;31.773416856907584
200070464;2020;29.776191737329977
200070464;2021;33.36323047521949
200070464;2022;33.268590629978
200070555;2015;40.71920573628966
200070555;2019;42.62377057878901
200070555;2020;39.47421877623604
200070555;2021;45.15663817976685
200070555;2022;45.482268520388374
200070712;2015;85.54752871838919
200070712;2019;100.56954900520734
200070712;2020;86.52174353878844
200070712;2021;96.68494695260927
200070712;2022;96.9774492102711
200070753;2015;104.78983831869508
200070753;2019;109.69621548417267
200070753;2020;99.11907423498545
200070753;2021;113.06108615815272
200070753;2022;113.28742037493387
200070761;2015;154.92365241628278
200070761;2019;133.23313624473565
200070761;2020;153.24113053190717
200070761;2021;178.36545856542
200070761;2022;158.94251737133106
200070852;2015;42.82711737165957
200070852;2019;43.5566494625815
200070852;2020;40.58659762146251
200070852;2021;45.52391956262749
200070852;2022;46.00669854379617
200071033;2015;0.427275702980448
200071033;2019;0.421562237238111
200071033;2020;0.384733436721305
200071033;2021;0.43648935163727903
200071033;2022;0.435879490623403
200071082;2015;82.44885035854466
200071082;2019;84.14502371567731
200071082;2020;74.89926015602424
200071082;2021;84.75108177345307
200071082;2022;83.56310643268527
200071140;2015;111.39336737813996
200071140;2019;108.78345366810458
200071140;2020;99.8375549505347
200071140;2021;114.0834203076538
200071140;2022;113.77049906018682
200071199;2015;41.29807584176446
200071199;2019;43.08078155423267
200071199;2020;39.41726024781795
200071199;2021;45.16333883408141
200071199;2022;45.40116241456909
200071215;2015;54.891950570774135
200071215;2019;48.7129156733497
200071215;2020;45.407919954632646
200071215;2021;50.869637472450776
200071215;2022;50.79975061501648
200071363;2015;123.8623237919822
200071363;2019;123.45322775073606
200071363;2020;112.80496331316496
200071363;2021;128.42248237845902
200071363;2022;126.34836503634229
200071371;2015;47.73800401926117
200071371;2019;48.19958245695559
200071371;2020;44.35730075997014
200071371;2021;50.53793486552292
200071371;2022;50.84262516793947
200071389;2015;83.52796684289979
200071389;2019;90.56054661943178
200071389;2020;80.77253471893172
200071389;2021;91.65305042874797
200071389;2022;91.03547520258884
200071405;2015;76.23821347537303
200071405;2019;150.1109656294334
200071405;2020;161.68789394074759
200071405;2021;195.3784017464061
200071405;2022;171.39673847631596
200071413;2015;82.09381733692466
200071413;2019;83.63998486832199
200071413;2020;76.66636346090665
200071413;2021;87.30461278019119
200071413;2022;87.8692972265618
200071470;2015;153.56914746865172
200071470;2019;206.06628821359635
200071470;2020;222.2454083705693
200071470;2021;267.6876290648477
200071470;2022;235.23087208553974
200071496;2015;39.83967736310634
200071496;2019;38.74220772853108
200071496;2020;35.58792796680984
200071496;2021;40.56667931407612
200071496;2022;40.659423101364254
200071512;2015;59.278420803945195
200071512;2019;57.15094877566076
200071512;2020;52.37156195106554
200071512;2021;59.66740837978951
200071512;2022;59.1091039785168
200071751;2015;204.5557682207225
200071751;2019;203.44033496104817
200071751;2020;185.9847678494195
200071751;2021;211.43187991251725
200071751;2022;212.39283653164551
200071884;2015;6.289824813020665
200071884;2019;8.59608536564725
200071884;2020;7.08766710135942
200071884;2021;7.520748714905951
200071884;2022;7.593603170214901
200071967;2015;71.87649343801334
200071967;2019;74.0336604111235
200071967;2020;69.2642585350387
200071967;2021;77.68963051508325
200071967;2022;78.41734019364058
200072007;2015;28.65466490404772
200072007;2019;28.763292054208986
200072007;2020;26.01848090447371
200072007;2021;29.398482589730847
200072007;2022;29.433737261575473
200072015;2015;82.79932865103291
200072015;2019;87.04869581458965
200072015;2020;77.41138557551768
200072015;2021;88.48130132162643
200072015;2022;89.82867894473452
200072080;2015;48.30053465887596
200072080;2019;49.1727906073023
200072080;2020;44.829243174872445
200072080;2021;50.75777278838606
200072080;2022;50.84363840409092
200072098;2015;46.931702049893346
200072098;2019;49.522003380034974
200072098;2020;45.24683442667863
200072098;2021;51.32228019869995
200072098;2022;51.91156075083181
200073096;2015;99.0365328159609
200073096;2019;100.72908505689246
200073096;2020;92.50378218676718
200073096;2021;105.35146216547342
200073096;2022;106.39787069694835
200073245;2015;77.51894966667099
200073245;2019;78.94612920332449
200073245;2020;71.82047648920698
200073245;2021;81.30400981060676
200073245;2022;82.70592232847852
200073393;2015;65.88293886050496
200073393;2019;64.04153582818246
200073393;2020;58.0377362805059
200073393;2021;65.1309538770915
200073393;2022;64.70068714481296
200073401;2015;37.7065087950363
200073401;2019;38.69227159004326
200073401;2020;35.46470078724748
200073401;2021;40.04468298307797
200073401;2022;39.954485144648245
200073419;2015;188.0080870392238
200073419;2019;201.61322347462456
200073419;2020;180.38230342196152
200073419;2021;200.7507776543911
200073419;2022;201.3554270440931
200073427;2015;63.09237066689967
200073427;2019;65.71237370342847
200073427;2020;59.170425547368836
200073427;2021;66.28297812058696
200073427;2022;66.99256028621288
200077014;2015;105.86744870493666
200077014;2019;108.42260078525452
200077014;2020;97.3982817860324
200077014;2021;110.52245412713127
200077014;2022;110.97894764924044
200085728;2015;39.406202020418164
200085728;2019;43.073122959252316
200085728;2020;38.16441503128102
200085728;2021;42.941789002373774
200085728;2022;42.78795229034385
200085751;2015;110.15493487109576
200085751;2019;109.25609463797477
200085751;2020;100.33839764268325
200085751;2021;114.39894801133202
200085751;2022;115.68060316429415
240100610;2015;27.53625877621698
240100610;2019;27.630596509074927
240100610;2020;25.32200372389148
240100610;2021;28.725353936952644
240100610;2022;29.251794043570023
240100750;2015;95.61044110121992
240100750;2019;98.57936695196571
240100750;2020;90.67614815935036
240100750;2021;103.10200266435052
240100750;2022;103.43024714524859
240100800;2015;24.35212602758124
240100800;2019;25.42348432833664
240100800;2020;22.69467146546477
240100800;2021;25.99936485994308
240100800;2022;25.922623294015807
240100883;2015;126.35655348317538
240100883;2019;126.78159215432127
240100883;2020;115.40552065962962
240100883;2021;131.66909493596114
240100883;2022;132.4392035291005
240100891;2015;27.996878404298986
240100891;2019;28.224087054869276
240100891;2020;25.508480002409602
240100891;2021;29.03019189577087
240100891;2022;29.40276586385763
240300491;2015;23.200664452418934
240300491;2019;22.792298178752628
240300491;2020;20.876273820285153
240300491;2021;23.813905517721043
240300491;2022;23.942564404714314
240300558;2015;27.795213652569895
240300558;2019;27.554041437826566
240300558;2020;25.04596041612803
240300558;2021;28.678633504695473
240300558;2022;28.8984193996049
240300566;2015;14.030539343332032
240300566;2019;13.602860911581867
240300566;2020;12.526143831347754
240300566;2021;14.342451415119239
240300566;2022;14.200836901989316
240300657;2015;20.951542386576055
240300657;2019;20.604989842753756
240300657;2020;18.769506312088986
240300657;2021;21.37268487319265
240300657;2022;21.233056241858378
240700302;2015;28.739308772541186
240700302;2019;28.93572326441088
240700302;2020;26.5225378390913
240700302;2021;30.174476137342758
240700302;2022;30.538469660139203
240700617;2015;15.648115776369975
240700617;2019;15.53851937108534
240700617;2020;14.248720491298442
240700617;2021;16.19956774316952
240700617;2022;16.342329626005018
240700716;2015;16.30097815289097
240700716;2019;16.474041791379182
240700716;2020;14.959333222029333
240700716;2021;16.870121931810054
240700716;2022;17.067745160859932
240700815;2015;17.64581679251451
240700815;2019;18.582296915224525
240700815;2020;17.003336434657626
240700815;2021;19.387348767640468
240700815;2022;19.658358491491942
240700864;2015;35.204068230923525
240700864;2019;37.845394265769094
240700864;2020;32.4690424987744
240700864;2021;36.51416462481718
240700864;2022;37.17040012483027
241500230;2015;87.79509588499177
241500230;2019;93.57826476031083
241500230;2020;84.06586741458044
241500230;2021;94.44065796099152
241500230;2022;94.55354874212776
241500255;2015;26.377737013964477
241500255;2019;25.632128567462154
241500255;2020;23.375181525424935
241500255;2021;26.304559361526376
241500255;2022;26.25903622578659
241500271;2015;17.317824734147152
241500271;2019;17.487686541716528
241500271;2020;16.10758151073766
241500271;2021;18.254842519985548
241500271;2022;18.380576716163272
241501055;2015;26.735753320791474
241501055;2019;29.46537116830931
241501055;2020;25.781057807403197
241501055;2021;28.485010799205668
241501055;2022;28.62443273076012
241501089;2015;15.780862800980442
241501089;2019;17.40859200468012
241501089;2020;15.35454609008528
241501089;2021;16.955827232798725
241501089;2022;17.05992715809416
241501139;2015;34.53633858677141
241501139;2019;33.34654973216247
241501139;2020;30.701389614410594
241501139;2021;34.90236777469353
241501139;2022;34.5217850205638
242600252;2015;55.541564532412764
242600252;2019;56.3623010928187
242600252;2020;51.74549122806928
242600252;2021;58.706111815869214
242600252;2022;59.80366036430614
242600492;2015;25.07029322435332
242600492;2019;25.747063024199736
242600492;2020;23.612677847167138
242600492;2021;26.84317066322821
242600492;2022;27.385307225399327
242600534;2015;42.0532802107422
242600534;2019;43.60561906237271
242600534;2020;40.07305615456029
242600534;2021;45.70112784793784
242600534;2022;46.12891661436144
243800604;2015;112.99054582592798
243800604;2019;117.52258513802617
243800604;2020;102.36365837783158
243800604;2021;115.63725114604988
243800604;2022;115.28855706454205
243800745;2015;37.835466105659755
243800745;2019;41.55955279676642
243800745;2020;36.37121625425358
243800745;2021;40.06430653844981
243800745;2022;40.55620957522973
243800935;2015;30.00099519937664
243800935;2019;31.36639999819209
243800935;2020;28.235186029205032
243800935;2021;32.036280290364026
243800935;2022;32.26836520422474
243800984;2015;136.04956013073175
243800984;2019;137.3095765554451
243800984;2020;126.81570667985488
243800984;2021;141.5370327870585
243800984;2022;142.57380174580723
243801024;2015;43.68193905484926
243801024;2019;43.761181888054736
243801024;2020;40.75634031990525
243801024;2021;45.152319098179476
243801024;2022;46.45686622044732
243801073;2015;44.730180786724084
243801073;2019;46.444480913308354
243801073;2020;40.83111762435332
243801073;2021;45.90553766019325
243801073;2022;46.421103489988795
243801255;2015;43.090904798273996
243801255;2019;43.413742905878024
243801255;2020;39.65526519603866
243801255;2021;45.01576353145113
243801255;2022;45.138166941128866
244200614;2015;17.327754565108187
244200614;2019;17.348124739718255
244200614;2020;15.84068045275543
244200614;2021;17.99573532879936
244200614;2022;18.007850580119182
244200622;2015;40.10717120855423
244200622;2019;40.61829333303358
244200622;2020;37.07815886744045
244200622;2021;42.04200713492934
244200622;2022;42.17332375036606
244200630;2015;30.212932079994903
244200630;2019;31.598107923763777
244200630;2020;28.57591662939414
244200630;2021;32.49871202886902
244200630;2022;32.82635433739323
244200770;2015;332.90562283580834
244200770;2019;379.8141433378554
244200770;2020;340.1608996631376
244200770;2021;395.883186891869
244200770;2022;391.77960495779394
244200820;2015;19.81884927554814
244200820;2019;18.83693111070203
244200820;2020;17.213094323044952
244200820;2021;19.482070392025104
244200820;2022;19.453148277320953
244200895;2015;34.09922015396005
244200895;2019;34.04479979060091
244200895;2020;31.194497863370835
244200895;2021;35.34376145574313
244200895;2022;36.010144491787216
244300307;2015;29.415021112422654
244300307;2019;25.927548112378005
244300307;2020;24.116220474202144
244300307;2021;26.88551288782188
244300307;2022;27.090670282028274
244301016;2015;45.750547109529805
244301016;2019;48.482377301824606
244301016;2020;43.54850132564109
244301016;2021;48.92279288272017
244301016;2022;48.59714943531957
244301099;2015;20.785834893750046
244301099;2019;20.616472272942744
244301099;2020;18.77784222364932
244301099;2021;21.330442052108292
244301099;2022;21.28955078015146
244301107;2015;28.816272494659014
244301107;2019;28.50709156301926
244301107;2020;26.185250349691785
244301107;2021;29.632135843426042
244301107;2022;29.632148677662677
244301123;2015;22.860138387437278
244301123;2019;23.483698972867057
244301123;2020;21.53443381600757
244301123;2021;24.291982751569932
244301123;2022;24.062483511851408
244301131;2015;32.18027987244191
244301131;2019;41.35013386840427
244301131;2020;35.05890632904186
244301131;2021;38.84462554895788
244301131;2022;39.02655668822866
246300701;2015;242.34671385752458
246300701;2019;290.74690027900465
246300701;2020;253.55630382143693
246300701;2021;285.19935224132763
246300701;2022;281.7220643102428
246300966;2015;36.136824863963604
246300966;2019;36.49206829227737
246300966;2020;33.37635188517805
246300966;2021;37.58972812306504
246300966;2022;37.560657637414685
246301097;2015;72.20375794997783
246301097;2019;71.08737342062996
246301097;2020;96.48445508346627
246301097;2021;100.48872804637702
246301097;2022;105.43464047585336
246900575;2015;55.43953834399781
246900575;2019;57.739246734455875
246900575;2020;51.215490786186486
246900575;2021;58.13828877543337
246900575;2022;58.19275243107678
246900625;2015;53.550578732332475
246900625;2019;54.05016838238873
246900625;2020;49.074144938282444
246900625;2021;55.68538793047608
246900625;2022;56.44676965511378
246900724;2015;38.96879678336868
246900724;2019;39.12413291656478
246900724;2020;35.709203361526114
246900724;2021;40.282411596954645
246900724;2022;40.288945038807874
246900740;2015;44.14907855976119
246900740;2019;44.72949120718325
246900740;2020;40.985049800148595
246900740;2021;46.60871687525507
246900740;2022;47.161159502763255
246900757;2015;32.8439264377888
246900757;2019;34.65967294251645
246900757;2020;31.56739239286359
246900757;2021;35.944828419794696
246900757;2022;35.552455171217744
246900765;2015;31.33313495348922
246900765;2019;32.61852054332169
246900765;2020;29.19622198291056
246900765;2021;33.06469354954317
246900765;2022;33.067643997026124
247300015;2015;20.14595166254021
247300015;2019;20.07378498947523
247300015;2020;18.504383667176747
247300015;2021;20.43980716608674
247300015;2022;20.76611491516139
247300254;2015;43.009103837187986
247300254;2019;43.601003134390545
247300254;2020;41.45287874511389
247300254;2021;46.26482391381635
247300254;2022;46.20201838947977
247300262;2015;18.346392049846287
247300262;2019;17.947613453942775
247300262;2020;16.52252039259004
247300262;2021;18.266198585408993
247300262;2022;18.518630363975834
247300361;2015;21.509677860391015
247300361;2019;21.028317204390138
247300361;2020;19.416484005095917
247300361;2021;21.596311776503445
247300361;2022;21.711184746011323
247300452;2015;14.805541990629086
247300452;2019;15.751622431992482
247300452;2020;14.72292467226557
247300452;2021;16.50468389195039
247300452;2022;16.50473123971573
247300528;2015;24.238069880402055
247300528;2019;23.97431245289088
247300528;2020;22.080881528798585
247300528;2021;24.57056101651184
247300528;2022;24.992798772794707
247300668;2015;16.39271934675369
247300668;2019;16.03931728653729
247300668;2020;14.975601841511157
247300668;2021;16.693962316145516
247300668;2022;16.81888863910454
247300676;2015;17.797671361940026
247300676;2019;17.357925350275227
247300676;2020;16.133469379898706
247300676;2021;18.01630199200619
247300676;2022;18.24766430433515
247300817;2015;37.33431872167313
247300817;2019;37.64703398514587
247300817;2020;35.42925243522192
247300817;2021;39.733004313590286
247300817;2022;40.32160698722373
247400047;2015;20.135215360598778
247400047;2019;20.349308104610053
247400047;2020;18.774430739593
247400047;2021;20.79658164402983
247400047;2022;20.905457308967698
247400112;2015;26.887358272901867
247400112;2019;27.825137935158885
247400112;2020;26.06205522064054
247400112;2021;29.20665908537992
247400112;2022;29.50423335749696
247400567;2015;23.49603323879234
247400567;2019;23.199458905475222
247400567;2020;21.62034584082835
247400567;2021;24.23848283181569
247400567;2022;24.445489682885068
247400583;2015;30.104736054094598
247400583;2019;31.135035849014336
247400583;2020;28.602009299480923
247400583;2021;32.179755690766044
247400583;2022;33.1656046554995
247400617;2015;48.24720993743253
247400617;2019;48.99206996084771
247400617;2020;44.57784432969074
247400617;2021;49.96829654780167
247400617;2022;50.2196057961588
247400666;2015;37.82980642231209
247400666;2019;37.522976315319994
247400666;2020;34.9607875433041
247400666;2021;39.145061414398015
247400666;2022;39.44573844025291
247400682;2015;42.232474723354265
247400682;2019;41.436385300656035
247400682;2020;38.32134192211337
247400682;2021;42.34371175037146
247400682;2022;42.741635334503016
247400690;2015;51.98603562784859
247400690;2019;55.04989565991219
247400690;2020;51.266809048702996
247400690;2021;57.42075091590596
247400690;2022;57.9700308058378
247400724;2015;42.30239374059516
247400724;2019;43.446353839057466
247400724;2020;40.45954832554259
247400724;2021;45.2697877244818
247400724;2022;45.633160146529846
247400740;2015;46.46886094493769
247400740;2019;47.138576720826855
247400740;2020;43.94202269115662
247400740;2021;49.31672896981412
247400740;2022;49.994235558925666
247400773;2015;29.426430406951134
247400773;2019;28.226992704161148
247400773;2020;25.741990757387192
247400773;2021;28.446277290159955
247400773;2022;28.746651512177642
248400335;2015;3.23565837552683
248400335;2019;3.40133452807139
248400335;2020;3.10983772010692
248400335;2021;3.56153589067211
248400335;2022;3.5774680486591
