code;annees;somme
200000172;0;0
200011773;2019;1.08586273195876
200011773;2021;0.05314
200011773;2022;0
200016905;0;0
200018166;0;0
200023299;0;0
200023372;0;0
200029999;2019;0.806431111111111
200029999;2020;0.829228888888889
200029999;2021;0.8512700000000001
200029999;2022;0.45799999999999996
200030658;0;0
200033116;2019;0.125
200033116;2020;0.00130598750826229
200034098;2015;0.603997866666667
200034098;2019;0.8303711111111111
200034098;2020;0.6458733333333331
200034098;2021;0.557413333333333
200034098;2022;0.324988888888889
200034882;2019;0.593766666666667
200034882;2020;1.450951736470588
200034882;2021;0.99558375
200034882;2022;1.038288493058824
200035129;0;0
200035202;2020;1.234926666666667
200035202;2021;2.338112
200035202;2022;2.253
200035723;0;0
200035731;2015;10.9975344072165
200035731;2019;3.44060294458763
200035731;2020;2.47279483298969
200035731;2021;6.996203082245129
200035731;2022;12.589922194587631
200039808;0;0
200039824;0;0
200039832;0;0
200040111;0;0
200040350;2019;6.2531666666666705
200040350;2020;7.590037777777771
200040350;2021;10.58977
200040350;2022;7.37011777777777
200040459;0;0
200040491;2019;18.06461944730816
200040491;2020;50.984224444444436
200040491;2021;7.285963
200040491;2022;15.967357999999999
200040509;0;0
200040566;2019;1.6000755555555561
200040566;2020;3.726528888888893
200040566;2021;5.307272
200040566;2022;5.080117777777771
200040574;0;0
200040590;0;0
200040657;0;0
200040681;2015;19.884839999999997
200040681;2019;19.68681111111113
200040681;2020;22.212539999999997
200040681;2021;20.21431777777773
200040681;2022;14.32527555555556
200040715;2019;20.787
200040715;2020;20.82
200040715;2021;20.548667000000002
200040715;2022;20.322868999999997
200040798;2019;1.036
200040798;2020;0.45230750399999997
200040798;2022;0
200041010;0;0
200041366;0;0
200041465;0;0
200042497;0;0
200042901;2015;17.91777777777778
200042901;2019;25.0842888888889
200042901;2020;24.5546844444444
200042901;2021;20.76124444444443
200042901;2022;21.8989088888889
200042935;0;0
200046977;2019;4.707
200046977;2020;4.932
200046977;2021;6.331353
200046977;2022;8.276254111111115
200059392;2015;6.73555555555556
200059392;2019;4.9340387969072195
200059392;2020;7.385409042153496
200059392;2021;8.10518425154639
200059392;2022;6.49263626597938
200065886;2015;3.079664444444445
200065886;2019;3.781773333333338
200065886;2020;4.712295555555559
200065886;2021;7.8460703333333335
200065886;2022;17.497098
200065894;2015;2.948117777777779
200065894;2019;4.516944444444443
200065894;2020;4.801515555555553
200065894;2021;4.923236666666668
200065894;2022;5.8558
200066587;2019;12.510531111111115
200066587;2020;15.827337777777776
200066587;2021;16.238612999999997
200066587;2022;18.542735
200066637;0;0
200066660;2015;0.014362222222222231
200066660;2019;0.199941866907216
200066660;2020;0.185552090721649
200066660;2021;0.488895214175258
200066660;2022;0.241538471134021
200066678;2015;1.230477
200066678;2019;1.547057777777777
200066678;2020;2.597173333333333
200066678;2021;2.41147
200066678;2022;2.534
200066793;2015;1.908
200066793;2019;16.68183333333333
200066793;2020;20.847276388888893
200066793;2021;22.740734000000003
200066793;2022;23.583755999999997
200067551;2019;5.96
200067551;2020;7.123
200067551;2021;7.1511450000000005
200067551;2022;7.139847
200067627;0;0
200067767;0;0
200067817;2021;3.8556709999999996
200067817;2022;28.858604
200068229;0;0
200068542;2020;1.7079777777777778
200068542;2021;15.817112000000002
200068542;2022;18.074581000000002
200068567;2015;0.9068222222222231
200068567;2019;1.063002222222222
200068567;2020;1.0130911111111112
200068567;2021;0.9249333333333329
200068567;2022;0.891868333333333
200068674;0;0
200068765;0;0
200068781;2015;65.1422222222223
200068781;2019;60.8307555555556
200068781;2020;56.2590133333333
200068781;2021;69.2074684444444
200068781;2022;61.8002453333333
200068997;2015;7.3029533333333285
200068997;2019;9.042689232092346
200068997;2020;12.786566666666658
200068997;2021;12.481395555555558
200068997;2022;13.991219999999998
200069110;2015;8.08002444444444
200069110;2019;8.602735555555553
200069110;2020;7.942324444444449
200069110;2021;6.413265999999999
200069110;2022;4.109426323
200069169;2019;0.30108222222222303
200069169;2020;1.6620555555555558
200069169;2021;1.98435
200069169;2022;0.841117708333333
200069177;0;0
200069193;0;0
200070118;0;0
200070308;0;0
200070340;2022;0
200070407;2022;4.562017
200070431;2015;18.12222222222223
200070431;2019;11.611822222222228
200070431;2020;12.74518888888889
200070431;2021;14.178166666666671
200070431;2022;15.15859777777777
200070464;0;0
200070555;2019;0.956648888888889
200070555;2020;1.1357733333333329
200070555;2021;10.494739333333332
200070555;2022;19.752188
200070712;2019;0.00148
200070712;2020;0
200070712;2021;0.762893333333333
200070712;2022;2.8721044444444397
200070753;2015;24.450308888888898
200070753;2019;19.0173645833333
200070753;2020;23.3339355555556
200070753;2021;22.708930000000002
200070753;2022;19.784
200070761;2019;1.403073333333333
200070761;2020;0.7375288888888889
200070761;2021;0
200070761;2022;1.0454599999999998
200070852;2019;2.6138777777777698
200070852;2020;3.40743111111111
200070852;2021;4.45406
200070852;2022;11.881568
200071033;0;0
200071082;0;0
200071140;2015;16.338709483104232
200071140;2019;15.17458888888888
200071140;2020;14.09435555555554
200071140;2021;18.56469477777777
200071140;2022;23.146775333333327
200071199;0;0
200071215;0;0
200071363;2015;14.002222222222219
200071363;2019;12.93193555555556
200071363;2020;13.72118
200071363;2021;16.31730888888889
200071363;2022;16.15479777777777
200071371;0;0
200071389;2015;0.481
200071389;2019;5.30783333333333
200071389;2020;7.08280888888889
200071389;2021;9.818073
200071389;2022;6.484999999999999
200071405;0;0
200071413;2022;6.318516
200071470;0;0
200071496;0;0
200071512;2020;1.416504444444444
200071512;2021;3.234
200071512;2022;4.107
200071751;2015;24.494592555555563
200071751;2019;39.75533333333326
200071751;2020;54.892173333333375
200071751;2021;113.53168188888897
200071751;2022;119.44536344444442
200071884;0;0
200071967;2019;5.999470588235294
200071967;2020;5.797
200071967;2021;4.836919
200071967;2022;2.8157379999999996
200072007;0;0
200072015;2019;3.54600222222223
200072015;2020;2.42702222222223
200072015;2021;3.1795400000000003
200072015;2022;3.588
200072080;2015;0
200072080;2019;1.658346666666667
200072080;2020;4.358177777777781
200072080;2021;5.86548
200072080;2022;6.916
200072098;0;0
200073096;2015;3.52706666666667
200073096;2019;6.254683750000001
200073096;2020;5.84265333333333
200073096;2021;6.36191
200073096;2022;6.378
200073245;2021;0.109513
200073245;2022;1.086025
200073393;2015;8.567820000000001
200073393;2019;9.606586666666667
200073393;2020;18.06707333333333
200073393;2021;17.27462
200073393;2022;17.86947555555556
200073401;0;0
200073419;2019;0
200073419;2020;3.64794444444444
200073419;2021;7.10732666666667
200073419;2022;6.9430000000000005
200073427;2015;3.47578444444444
200073427;2019;2.8491733333333302
200073427;2020;2.3160711111111096
200073427;2021;0
200077014;2019;1.651
200077014;2020;1.431
200077014;2021;2.373597
200077014;2022;2.8958369999999998
200085728;2019;2.835
200085728;2020;7.525
200085728;2021;7.448368
200085728;2022;7.732774999999999
200085751;2020;3.9671199999999995
200085751;2021;9.769518
200085751;2022;37.702453999999996
240100610;0;0
240100750;0;0
240100800;2022;0
240100883;0;0
240100891;0;0
240300491;0;0
240300558;2020;3.7517488888888897
240300558;2021;4.6585
240300558;2022;13.511037
240300566;2015;12.27935555555556
240300566;2019;15.16647555555556
240300566;2020;15.84258222222222
240300566;2021;16.05381555555556
240300566;2022;17.20140466666667
240300657;2021;4.29779
240300657;2022;4.6952679999999996
240700302;0;0
240700617;0;0
240700716;0;0
240700815;0;0
240700864;0;0
241500230;0;0
241500255;0;0
241500271;0;0
241501055;2019;1.16452
241501055;2020;1.118626666666667
241501055;2021;0.300613333333333
241501055;2022;0
241501089;0;0
241501139;2019;1.1182822222222228
241501139;2020;2.67511333333333
241501139;2021;1.4961799999999998
241501139;2022;2.42
242600252;2021;5.573982
242600252;2022;9.76473
242600492;0;0
242600534;0;0
243800604;2015;17.74444444444444
243800604;2019;45.1145777777777
243800604;2020;47.9467155555556
243800604;2021;53.313208888888894
243800604;2022;51.6185702222223
243800745;0;0
243800935;0;0
243800984;0;0
243801024;2015;0.901271111111111
243801024;2019;0.956306666666667
243801024;2020;1.139628888888889
243801024;2021;1.00842
243801024;2022;1.120298666666667
243801073;2019;2.461
243801073;2020;13.872
243801073;2021;15.348834
243801073;2022;15.55493
243801255;0;0
244200614;0;0
244200622;0;0
244200630;0;0
244200770;2015;52.518473333333304
244200770;2019;75.7654666666667
244200770;2020;88.2241866666667
244200770;2021;82.41518888888889
244200770;2022;82.4004527777777
244200820;2022;0.884233333333333
244200895;0;0
244300307;0;0
244301016;0;0
244301099;0;0
244301107;2019;0.262666666666667
244301107;2020;0.2
244301107;2021;0.645
244301107;2022;0.352
244301123;2019;2.43680444444444
244301123;2020;5.04412666666667
244301123;2021;4.45744
244301123;2022;4.31446770833333
244301131;2015;0.973866666666667
244301131;2019;0
246300701;2015;16.367332966781213
246300701;2019;26.766371111111066
246300701;2020;15.230130245773204
246300701;2021;22.55835111111108
246300701;2022;12.734053333333328
246300966;0;0
246301097;0;0
246900575;0;0
246900625;0;0
246900724;0;0
246900740;0;0
246900757;0;0
246900765;0;0
247300015;0;0
247300254;0;0
247300262;0;0
247300361;0;0
247300452;0;0
247300528;0;0
247300668;0;0
247300676;0;0
247300817;0;0
247400047;0;0
247400112;0;0
247400567;0;0
247400583;2022;0.7833490000000001
247400617;2019;2.048
247400617;2021;3.39484235294118
247400617;2022;1.970420781176471
247400666;0;0
247400682;2019;0
247400682;2020;0.07322842886597941
247400682;2022;0.4525314048
247400690;2021;1.5185119999999999
247400690;2022;7.735882999999999
247400724;2015;0
247400724;2019;0.036
247400724;2020;1.739
247400724;2021;2.2906500000000003
247400724;2022;2.579714
247400740;2019;4.53028222222223
247400740;2020;4.49672
247400740;2021;4.7016800000000005
247400740;2022;4.556
247400773;0;0
248400335;0;0
