code;annees;somme
200000172;2015;1.4659212645133082
200000172;2019;1.5727766713505866
200000172;2020;1.6159933812627105
200000172;2021;1.6066360323891353
200000172;2022;1.7447061891821005
200011773;2015;2.9492844438230033
200011773;2019;3.235511255738981
200011773;2020;3.2925069345100715
200011773;2021;3.5661496959211827
200011773;2022;3.8788517606148654
200016905;2015;1.525537952454564
200016905;2019;1.6672519338598504
200016905;2020;1.5723060756853942
200016905;2021;1.7232263599944408
200016905;2022;2.0302833689100623
200018166;2015;9.888002579713243
200018166;2019;13.039897493909313
200018166;2020;13.20303494793265
200018166;2021;13.644234240468588
200018166;2022;15.707813593796894
200023299;2015;0.56816951498675
200023299;2019;0.6360776620620799
200023299;2020;0.6361790988720104
200023299;2021;0.6638458168657417
200023299;2022;0.6957708002512466
200023372;2015;0.4199039249339827
200023372;2019;0.44390343565453044
200023372;2020;0.4596071063830299
200023372;2021;0.48086544327752195
200023372;2022;0.5108892045375941
200029999;2015;0.9514433804967388
200029999;2019;1.1349971994698858
200029999;2020;1.1358248761509186
200029999;2021;1.28215254165642
200029999;2022;3.649988755365036
200030658;2015;1.9988794131318957
200030658;2019;2.3937973800320242
200030658;2020;2.445527226500576
200030658;2021;2.4976595431966477
200030658;2022;3.0773365334708265
200033116;2015;1.841494219889873
200033116;2019;2.096271558957714
200033116;2020;2.1381179496453746
200033116;2021;2.076321589748566
200033116;2022;2.286111822175454
200034098;2015;0.6565948389679211
200034098;2019;0.8013567690296269
200034098;2020;0.8355257472324892
200034098;2021;0.8103798551501814
200034098;2022;0.8847075836730487
200034882;2015;2.419936441081259
200034882;2019;2.6000727239853876
200034882;2020;2.6823344744774062
200034882;2021;2.685788721023217
200034882;2022;2.821717574978093
200035129;2015;0.2400521038582496
200035129;2019;0.2330938540061837
200035129;2020;1.0411843010940758
200035129;2021;0.9686955527463886
200035129;2022;1.2482561952698596
200035202;2015;2.5551934051343497
200035202;2019;2.9561943711997927
200035202;2020;3.1226737150502095
200035202;2021;3.5008988124569607
200035202;2022;4.031284624531935
200035723;2015;4.990515501639379
200035723;2019;7.341373497643519
200035723;2020;6.706043699335186
200035723;2021;7.729997837197685
200035723;2022;8.169881769051873
200035731;2015;8.294889831354785
200035731;2019;9.0497281312315
200035731;2020;10.596701491389778
200035731;2021;11.79867107747644
200035731;2022;21.460741010054228
200039808;2015;7.259280828815509
200039808;2019;28.191099226967044
200039808;2020;27.562829149131904
200039808;2021;27.340760753495857
200039808;2022;35.99815808366904
200039824;2015;1.0096605624030395
200039824;2019;1.1293919891265034
200039824;2020;1.6722576965329063
200039824;2021;1.6202731034158782
200039824;2022;2.116350583491632
200039832;2015;1.868418163337238
200039832;2019;2.062320617296718
200039832;2020;5.133456647756988
200039832;2021;5.33698833752599
200039832;2022;5.860430689040272
200040111;2015;1.341311355019616
200040111;2019;1.6758279228737947
200040111;2020;1.7130471549164812
200040111;2021;1.6415794484444153
200040111;2022;1.8579995405578709
200040350;2015;2.9468395137738446
200040350;2019;3.4901748318581465
200040350;2020;3.433744616637601
200040350;2021;4.769932049302593
200040350;2022;14.61738935082137
200040459;2015;22.74161741228334
200040459;2019;34.9173587430952
200040459;2020;42.812385823274234
200040459;2021;41.607796804287446
200040459;2022;48.322852618706385
200040491;2015;12.48893021990542
200040491;2019;25.839518863351177
200040491;2020;26.40118142406131
200040491;2021;24.724571038138702
200040491;2022;30.644672290823937
200040509;2015;2.462037047433245
200040509;2019;3.630600081830771
200040509;2020;3.6312846583705434
200040509;2021;3.87614591240828
200040509;2022;4.223879861877649
200040566;2015;4.391842512398782
200040566;2019;5.388197894306627
200040566;2020;5.857232802992425
200040566;2021;6.128352974033339
200040566;2022;7.321554220087571
200040574;2015;3.4151293737989405
200040574;2019;4.279109153948599
200040574;2020;4.155800882554268
200040574;2021;4.606870689057832
200040574;2022;5.180735793964406
200040590;2015;3.752579498029384
200040590;2019;4.35427605008363
200040590;2020;4.414374806655986
200040590;2021;4.395931816479172
200040590;2022;4.93167194456596
200040657;2015;2.706634869202384
200040657;2019;9.955951480211366
200040657;2020;10.070071938348258
200040657;2021;9.658057604452221
200040657;2022;10.690681450158506
200040681;2015;2.0073327446056783
200040681;2019;22.935499363476872
200040681;2020;23.433066023697506
200040681;2021;15.685091267346634
200040681;2022;40.347635456767925
200040715;2015;16.478194022260137
200040715;2019;20.99433137013596
200040715;2020;21.52240372631907
200040715;2021;21.863104459972316
200040715;2022;23.64026452727838
200040798;2015;0.6703662323951023
200040798;2019;0.8716483984414114
200040798;2020;0.8213010596740208
200040798;2021;0.880200874663298
200040798;2022;0.8839740904410721
200041010;2015;3.714655240372577
200041010;2019;4.6310240399206135
200041010;2020;4.83933457734084
200041010;2021;4.873725142709055
200041010;2022;5.639643248390238
200041366;2015;6.246404420203045
200041366;2019;7.317349151611079
200041366;2020;7.3838442721715785
200041366;2021;7.353298269882043
200041366;2022;8.937042534964412
200041465;2015;1.9321029208801144
200041465;2019;2.8195641399183504
200041465;2020;2.944703556023765
200041465;2021;3.3539608253649593
200041465;2022;4.150674453636228
200042497;2015;3.0756086538690903
200042497;2019;3.2938654847043156
200042497;2020;3.3751023066434067
200042497;2021;5.2456105387664556
200042497;2022;3.326102286616672
200042901;2015;18.309594269450724
200042901;2019;29.58704965515709
200042901;2020;32.51975422596998
200042901;2021;32.26176254936363
200042901;2022;35.90679630544396
200042935;2015;3.8235842959042303
200042935;2019;4.79814886996246
200042935;2020;5.245549291638184
200042935;2021;8.514370484308149
200042935;2022;17.264471645637176
200046977;2015;53.1854715667676
200046977;2019;70.75625762056603
200046977;2020;91.45851075867105
200046977;2021;89.75700146550714
200046977;2022;111.6391875770332
200059392;2015;7.507145633561051
200059392;2019;21.784031459640904
200059392;2020;21.097336506957927
200059392;2021;22.076121477305442
200059392;2022;25.67483392896225
200065886;2015;24.136626872031517
200065886;2019;37.04506095210812
200065886;2020;37.25999896656833
200065886;2021;37.685524526285356
200065886;2022;43.975345013354286
200065894;2015;6.265924669537373
200065894;2019;8.476391158064116
200065894;2020;9.170555824777098
200065894;2021;9.207737979950446
200065894;2022;10.937205048985216
200066587;2015;4.19341413724591
200066587;2019;6.594311485652549
200066587;2020;7.096530293219433
200066587;2021;7.668336202526598
200066587;2022;9.540626509910435
200066637;2015;14.242658419337596
200066637;2019;18.468425613158086
200066637;2020;20.12522773445034
200066637;2021;20.039980099670615
200066637;2022;22.208499783285575
200066660;2015;25.864750537430474
200066660;2019;29.745683300439826
200066660;2020;32.76134183095218
200066660;2021;33.42778512431407
200066660;2022;37.73015497988901
200066678;2015;38.85892266575975
200066678;2019;48.55952498206623
200066678;2020;53.05142277306742
200066678;2021;53.92652715036067
200066678;2022;59.80505077443226
200066793;2015;8.5821112955063
200066793;2019;9.955194756080042
200066793;2020;10.51319557009003
200066793;2021;10.720629253408207
200066793;2022;11.762631689088867
200067551;2015;5.1275908773831596
200067551;2019;6.023240849833995
200067551;2020;6.293699410410717
200067551;2021;6.368593887633474
200067551;2022;7.097869215597789
200067627;2015;2.448109928147045
200067627;2019;3.3106721487062636
200067627;2020;9.37661616096181
200067627;2021;8.986907152016407
200067627;2022;10.342171985743438
200067767;2015;1.162569625996213
200067767;2019;1.4846079045452394
200067767;2020;1.6338597599112012
200067767;2021;1.850238405433196
200067767;2022;2.558665247134103
200067817;2015;3.3257631728970543
200067817;2019;8.449398820563017
200067817;2020;7.9750907952694075
200067817;2021;5.422420325472981
200067817;2022;8.552030110888559
200068229;2015;3.6991292796208857
200068229;2019;7.148329129619972
200068229;2020;6.7644645499359415
200068229;2021;7.557860819569403
200068229;2022;8.443361634566592
200068542;2015;6.606653000335491
200068542;2019;7.651088645886481
200068542;2020;7.92507673784957
200068542;2021;8.670103357643912
200068542;2022;22.026393297487335
200068567;2015;4.801110485211743
200068567;2019;5.821375837958987
200068567;2020;6.1631606948017295
200068567;2021;6.248509048736183
200068567;2022;7.403653929294962
200068674;2015;5.762909406740799
200068674;2019;6.989507155760065
200068674;2020;7.376163698674248
200068674;2021;13.116313741674936
200068674;2022;15.455744326739833
200068765;2015;0.08098169243189979
200068765;2019;0.3620732710512325
200068765;2020;0.3577065576968581
200068765;2021;0.3406343820288722
200068765;2022;0.3528701309881093
200068781;2015;44.15945532157447
200068781;2019;66.20547099348913
200068781;2020;82.84270434668262
200068781;2021;96.89575376026401
200068781;2022;125.46755367317392
200068997;2015;3.5888703231166525
200068997;2019;4.2390560296616435
200068997;2020;4.356604227776577
200068997;2021;4.499802258116016
200068997;2022;5.25381458858078
200069110;2015;7.918181800259533
200069110;2019;9.92822507571493
200069110;2020;10.35610882389449
200069110;2021;10.667585432565751
200069110;2022;11.718334008802511
200069169;2015;4.400632070575931
200069169;2019;5.718862579198681
200069169;2020;5.9392396405387355
200069169;2021;6.339187752177275
200069169;2022;8.8157909710076
200069177;2015;3.9719817275853337
200069177;2019;4.641143050110565
200069177;2020;4.643054150462384
200069177;2021;4.78493378422124
200069177;2022;6.164044125682485
200069193;2015;3.4570039593976203
200069193;2019;4.270830680157384
200069193;2020;4.437367880902242
200069193;2021;6.175062325101207
200069193;2022;5.7583142818358795
200070118;2015;1.2909317624132222
200070118;2019;1.585715814865274
200070118;2020;1.7161380576477132
200070118;2021;1.890094350197684
200070118;2022;2.2526585783796147
200070308;2015;0.0201748592713708
200070308;2019;0.02650749382496847
200070308;2020;0.02659773850228877
200070308;2021;0.02704896188888987
200070308;2022;0.02677822785692917
200070340;2015;0.4764441917368068
200070340;2019;0.6093043642761075
200070340;2020;0.6204568655976676
200070340;2021;0.6389747761272463
200070340;2022;0.6779377382905203
200070407;2015;10.74242314986944
200070407;2019;13.288611647206674
200070407;2020;14.67744114072329
200070407;2021;15.010794642907257
200070407;2022;17.241302044314903
200070431;2015;13.628789816328837
200070431;2019;15.236290234516584
200070431;2020;15.855205006971222
200070431;2021;16.453331604035753
200070431;2022;19.682265383937686
200070464;2015;2.6826797574554018
200070464;2019;2.467970991707022
200070464;2020;2.509998183012374
200070464;2021;2.5884028399204335
200070464;2022;2.614665055140627
200070555;2015;1.8486533582293834
200070555;2019;2.19499819475355
200070555;2020;2.2099708651808077
200070555;2021;2.235349371704792
200070555;2022;2.7536734742659625
200070712;2015;5.956380224217295
200070712;2019;6.602348877938946
200070712;2020;7.131542446587597
200070712;2021;7.276489876151153
200070712;2022;8.4933889005048
200070753;2015;10.141513222300093
200070753;2019;11.958791486296615
200070753;2020;12.282678434916374
200070753;2021;11.8432249732013
200070753;2022;13.382841727481724
200070761;2015;4.170716295654939
200070761;2019;5.17620775076459
200070761;2020;6.226649696890306
200070761;2021;6.919687250642539
200070761;2022;7.79224388873033
200070852;2015;1.8649528340099295
200070852;2019;3.0470150829511735
200070852;2020;3.5462649843975464
200070852;2021;3.967836813512247
200070852;2022;4.169469837979571
200071033;2015;0.1217050223197122
200071033;2019;0.12371516589232993
200071033;2020;0.10159196993372042
200071033;2021;0.10078299014067295
200071033;2022;0.10357257801650142
200071082;2015;7.790433041824501
200071082;2019;15.827829518920888
200071082;2020;16.444444621407357
200071082;2021;20.215276191012013
200071082;2022;40.75448552427239
200071140;2015;25.074887839799754
200071140;2019;34.001050760751355
200071140;2020;41.303497280681164
200071140;2021;40.20086692786324
200071140;2022;45.86215658356919
200071199;2015;2.903670391744838
200071199;2019;6.023923072285967
200071199;2020;6.488419436349323
200071199;2021;6.716693364331312
200071199;2022;8.021228585345554
200071215;2015;4.302659160075937
200071215;2019;12.144553936677251
200071215;2020;12.786556251287026
200071215;2021;14.300769134045831
200071215;2022;18.99739339293409
200071363;2015;5.037957056431053
200071363;2019;12.242881694297674
200071363;2020;12.471544107559035
200071363;2021;13.941479079612098
200071363;2022;15.356082657662588
200071371;2015;1.7740628098915143
200071371;2019;2.1408591315936856
200071371;2020;2.1449541605094975
200071371;2021;2.227270790132333
200071371;2022;2.6447255351659473
200071389;2015;5.2512865880265736
200071389;2019;8.052602456308398
200071389;2020;11.90049380106569
200071389;2021;12.579516489634786
200071389;2022;15.37545221620219
200071405;2015;9.13797004883479
200071405;2019;8.975025550980984
200071405;2020;11.017426948776425
200071405;2021;14.251573159481875
200071405;2022;15.145844948909133
200071413;2015;11.790966811345623
200071413;2019;12.779833952595245
200071413;2020;14.060612986519697
200071413;2021;17.083814968797988
200071413;2022;45.62011821639273
200071470;2015;37.87321960240912
200071470;2019;41.32860933368085
200071470;2020;56.195750838792286
200071470;2021;54.56971838006233
200071470;2022;95.66540938537453
200071496;2015;4.323029352260688
200071496;2019;8.746803095759004
200071496;2020;10.697596462664267
200071496;2021;14.603156296645775
200071496;2022;15.357266675311148
200071512;2015;5.228742348306484
200071512;2019;24.389322321486947
200071512;2020;31.798963804834994
200071512;2021;43.53321765945743
200071512;2022;48.02910508457018
200071751;2015;9.839398574435142
200071751;2019;10.74763695235216
200071751;2020;11.863535606081438
200071751;2021;12.54638136699819
200071751;2022;20.88179370689087
200071884;2015;0.43890173356156126
200071884;2019;1.14836280248874
200071884;2020;1.2722914045354439
200071884;2021;6.856856338432966
200071884;2022;8.150528245739922
200071967;2015;2.1661577103301433
200071967;2019;2.4755797976102705
200071967;2020;2.4598225490936416
200071967;2021;2.528867617424666
200071967;2022;2.8262078745632584
200072007;2015;1.3917591078916745
200072007;2019;1.6169625100806222
200072007;2020;1.7898819931583743
200072007;2021;1.7361579483181482
200072007;2022;1.8387477620988208
200072015;2015;5.1937387151250505
200072015;2019;6.422217663687839
200072015;2020;7.911111192350263
200072015;2021;9.02677203632406
200072015;2022;10.020309349846176
200072080;2015;6.647295078123111
200072080;2019;11.323149413945778
200072080;2020;17.748574921332477
200072080;2021;17.665394658703224
200072080;2022;22.986112065814044
200072098;2015;2.7212821930941513
200072098;2019;3.7516339731380275
200072098;2020;3.913926379149533
200072098;2021;6.0771107781738145
200072098;2022;7.917202396499125
200073096;2015;10.489433365603853
200073096;2019;21.082432504472195
200073096;2020;15.690913960047396
200073096;2021;26.825369935772517
200073096;2022;30.45716838776031
200073245;2015;10.415674547019888
200073245;2019;12.046278447489634
200073245;2020;13.455478770737683
200073245;2021;13.51672216345437
200073245;2022;15.083348509402146
200073393;2015;26.149831163640673
200073393;2019;27.294613876861327
200073393;2020;27.472332219991042
200073393;2021;30.12704385468298
200073393;2022;36.151995496693154
200073401;2015;2.510624787531437
200073401;2019;3.454516384242122
200073401;2020;3.520796422847067
200073401;2021;3.7323354269342457
200073401;2022;4.779395677304484
200073419;2015;22.582335999855804
200073419;2019;24.22908446805107
200073419;2020;25.070472301693368
200073419;2021;25.583832893916544
200073419;2022;44.14378877786597
200073427;2015;5.435724922559209
200073427;2019;5.949246491956481
200073427;2020;5.9601161940797205
200073427;2021;5.796256813138904
200073427;2022;6.637625885795199
200077014;2015;6.3964692151428935
200077014;2019;8.672564084060179
200077014;2020;9.811469099708287
200077014;2021;10.68159126793393
200077014;2022;13.42424639043432
200085728;2015;4.060367682744701
200085728;2019;4.476390967784585
200085728;2020;4.595840341331515
200085728;2021;4.782913447374205
200085728;2022;6.7527466614724245
200085751;2015;5.89081735865618
200085751;2019;10.276472658359163
200085751;2020;12.63052076283523
200085751;2021;17.335025934072444
200085751;2022;19.540444476000186
240100610;2015;1.293096751513811
240100610;2019;1.7943116291043648
240100610;2020;1.8171813203154534
240100610;2021;1.9579722860266457
240100610;2022;15.109000552112528
240100750;2015;6.172469230217121
240100750;2019;5.726120063147602
240100750;2020;5.764477827568105
240100750;2021;6.03027529678575
240100750;2022;6.633064566704956
240100800;2015;1.2164897127426015
240100800;2019;1.3788299419926022
240100800;2020;1.4353830478903142
240100800;2021;1.8920641795763518
240100800;2022;1.7141468220137215
240100883;2015;6.129969746470124
240100883;2019;19.4655206001651
240100883;2020;21.711833803581897
240100883;2021;22.694930076201455
240100883;2022;50.5179238194916
240100891;2015;0.9615975980419519
240100891;2019;1.2718065091672142
240100891;2020;1.2894423548413436
240100891;2021;1.5666416863879271
240100891;2022;1.777924257084998
240300491;2015;1.0637800571604947
240300491;2019;1.8687236694484675
240300491;2020;1.890200068198634
240300491;2021;2.3835429126399594
240300491;2022;3.3304352472424275
240300558;2015;1.4007071402026803
240300558;2019;25.08540959857844
240300558;2020;25.967326326758492
240300558;2021;25.448881517948767
240300558;2022;27.855502786635913
240300566;2015;3.6332116320992336
240300566;2019;5.2796933454651915
240300566;2020;6.489188852206562
240300566;2021;6.585943708594757
240300566;2022;7.471926390292975
240300657;2015;1.408903771646172
240300657;2019;3.1226543258360926
240300657;2020;4.621737422841175
240300657;2021;5.409320562760716
240300657;2022;6.845704293844814
240700302;2015;1.1942219416596345
240700302;2019;1.8817200476219393
240700302;2020;2.01654685523006
240700302;2021;2.2361105291202077
240700302;2022;2.501983159395485
240700617;2015;17.952031049984907
240700617;2019;17.4350594153506
240700617;2020;16.081418849589443
240700617;2021;16.22774789682789
240700617;2022;17.19209984635495
240700716;2015;0.5565844145914546
240700716;2019;0.6487474215233623
240700716;2020;0.6947605267269213
240700716;2021;0.6580335139327375
240700716;2022;0.8454813411822657
240700815;2015;3.7215417833038127
240700815;2019;4.966569423972577
240700815;2020;4.78328044317783
240700815;2021;5.0350112960563065
240700815;2022;6.230062339852094
240700864;2015;2.507557731359552
240700864;2019;2.4844232659729997
240700864;2020;3.1071025123950067
240700864;2021;3.414417456819242
240700864;2022;6.71392050615882
241500230;2015;74.86716106057403
241500230;2019;82.69186597110927
241500230;2020;82.96236592384477
241500230;2021;83.01349189150733
241500230;2022;93.1728944079519
241500255;2015;2.1946509752807652
241500255;2019;4.454795958406334
241500255;2020;4.34303142505108
241500255;2021;4.159447845195985
241500255;2022;5.0589006677369674
241500271;2015;2.4581592101102605
241500271;2019;3.870295423343832
241500271;2020;4.497823387526826
241500271;2021;4.557317851787285
241500271;2022;5.258092754693127
241501055;2015;2.692322334303197
241501055;2019;2.902594746749433
241501055;2020;3.5348637566850716
241501055;2021;3.4497566056266953
241501055;2022;3.869684158544449
241501089;2015;1.860945708393755
241501089;2019;3.209463920671414
241501089;2020;3.4742556918174596
241501089;2021;3.4202596568921315
241501089;2022;4.140035144787107
241501139;2015;6.16105637441935
241501139;2019;8.229131101033033
241501139;2020;9.29624680457825
241501139;2021;10.427860586889228
241501139;2022;14.318823063079982
242600252;2015;8.68617415781243
242600252;2019;12.97312323168204
242600252;2020;15.37734387091196
242600252;2021;17.740185635338023
242600252;2022;26.5635501079676
242600492;2015;1.5613939046419025
242600492;2019;2.276131843650701
242600492;2020;3.9992653878497872
242600492;2021;4.54160530324802
242600492;2022;5.094857976191086
242600534;2015;4.64443107771435
242600534;2019;5.780844305818112
242600534;2020;6.001476357716061
242600534;2021;5.9579637746509295
242600534;2022;6.744057775508012
243800604;2015;11.858727118797995
243800604;2019;12.965853941533883
243800604;2020;12.729626503971494
243800604;2021;12.91261338459555
243800604;2022;15.198878114410139
243800745;2015;0.6223063830404613
243800745;2019;0.7134764496613306
243800745;2020;0.7368225387845023
243800745;2021;0.7371973156722802
243800745;2022;0.7625100004352344
243800935;2015;1.9009206030258332
243800935;2019;2.249818114218985
243800935;2020;2.231021144394781
243800935;2021;2.254247864932814
243800935;2022;2.4510394751950715
243800984;2015;6.9932257345129605
243800984;2019;8.435162122171743
243800984;2020;8.954510641563136
243800984;2021;11.553151533619607
243800984;2022;15.825362951901576
243801024;2015;1.21645703609988
243801024;2019;1.5915982390784706
243801024;2020;1.6454508848048541
243801024;2021;1.6845864851583912
243801024;2022;1.844435353018861
243801073;2015;2.959119023515951
243801073;2019;16.747214600294335
243801073;2020;17.45184421218068
243801073;2021;16.428660475930844
243801073;2022;19.130227316188797
243801255;2015;1.855869072505936
243801255;2019;2.3168630688137255
243801255;2020;2.421447545595831
243801255;2021;4.547997698761842
243801255;2022;7.487333301258559
244200614;2015;1.0626670519657284
244200614;2019;1.975529486178814
244200614;2020;2.240006378348092
244200614;2021;2.6172583052898166
244200614;2022;4.020391682885701
244200622;2015;1.660270684770389
244200622;2019;1.914149791823759
244200622;2020;2.0912183351934917
244200622;2021;2.3017934273274143
244200622;2022;4.497152175956981
244200630;2015;1.4992483586350658
244200630;2019;1.932524948436846
244200630;2020;2.241434504153437
244200630;2021;2.1673775685183907
244200630;2022;3.0529244157634032
244200770;2015;19.559072502318585
244200770;2019;24.044059342610147
244200770;2020;24.707078379469905
244200770;2021;28.7544030839186
244200770;2022;33.6546507530531
244200820;2015;0.512866130116215
244200820;2019;0.6027870192487987
244200820;2020;0.6255039306621559
244200820;2021;0.642532904438271
244200820;2022;0.8940861900581512
244200895;2015;1.630979654458115
244200895;2019;1.9835050778321295
244200895;2020;2.0936857376255325
244200895;2021;2.170371212784693
244200895;2022;2.4934406597260517
244300307;2015;2.005319158703714
244300307;2019;2.1143402172071495
244300307;2020;2.2097094832065327
244300307;2021;2.094554284806345
244300307;2022;3.089469610770081
244301016;2015;2.6391672199634684
244301016;2019;3.0220069034530455
244301016;2020;3.275881564148297
244301016;2021;3.3071106055985107
244301016;2022;4.31920094258357
244301099;2015;1.5511505031462867
244301099;2019;1.5587205924776648
244301099;2020;1.5227773894836159
244301099;2021;1.6124355978627822
244301099;2022;1.6523090959091453
244301107;2015;2.0974838815968746
244301107;2019;2.18265531575991
244301107;2020;2.748279519236716
244301107;2021;2.746141621878148
244301107;2022;4.02494024988186
244301123;2015;1.8387585624215714
244301123;2019;3.5317652807309967
244301123;2020;6.4844169065095985
244301123;2021;9.615330574510315
244301123;2022;12.783405872592246
244301131;2015;1.4597541825807956
244301131;2019;1.7759626313224675
244301131;2020;2.0014724523774063
244301131;2021;2.266310503320321
244301131;2022;2.230994573396009
246300701;2015;17.908346479325754
246300701;2019;19.78022821584938
246300701;2020;20.208510155927733
246300701;2021;20.208024999807847
246300701;2022;21.84332567127545
246300966;2015;2.084629483554878
246300966;2019;2.5178739216781705
246300966;2020;2.8388985712305974
246300966;2021;3.017576438784579
246300966;2022;3.7701816523258804
246301097;2015;2.0997900086924317
246301097;2019;2.5369961798379603
246301097;2020;3.037597396012663
246301097;2021;3.611065113068548
246301097;2022;4.596731273949202
246900575;2015;3.5626952329666954
246900575;2019;4.3796379823799905
246900575;2020;4.389712799978502
246900575;2021;4.577864506383134
246900575;2022;5.2383122254022085
246900625;2015;3.2157069804143976
246900625;2019;3.7630808131927815
246900625;2020;3.994274555904976
246900625;2021;4.136726978120937
246900625;2022;4.906190946045939
246900724;2015;2.5090821590460735
246900724;2019;3.245424173193262
246900724;2020;3.2756061071920755
246900724;2021;3.5417367274083005
246900724;2022;3.9131369267615863
246900740;2015;2.6845638764127737
246900740;2019;3.8757612347331727
246900740;2020;4.287983150181912
246900740;2021;4.361884653778204
246900740;2022;4.99175026512345
246900757;2015;3.086117957793008
246900757;2019;3.414910912308935
246900757;2020;3.6442939693298273
246900757;2021;3.6387299710701546
246900757;2022;3.884961988679392
246900765;2015;3.506000010859623
246900765;2019;2.787304024786245
246900765;2020;2.7012620077517595
246900765;2021;2.863406378053777
246900765;2022;3.3103944470722317
247300015;2015;0.5193445755136328
247300015;2019;0.3967674331249694
247300015;2020;0.40836057811457016
247300015;2021;0.38228833643541826
247300015;2022;0.402762976632058
247300254;2015;0.6652991799723039
247300254;2019;0.8937688229930973
247300254;2020;0.8715694848908948
247300254;2021;0.8901911420905543
247300254;2022;0.9970346492472617
247300262;2015;0.5886564691527453
247300262;2019;0.7050837536656072
247300262;2020;0.7108019840864587
247300262;2021;0.7225262597656845
247300262;2022;0.706924086777118
247300361;2015;0.6639811776325782
247300361;2019;1.0879820045904582
247300361;2020;1.0970537518184098
247300361;2021;0.9980686222201869
247300361;2022;1.1038779957772777
247300452;2015;1.572840873068443
247300452;2019;0.9567742728750361
247300452;2020;1.07569448050288
247300452;2021;1.1224878318233067
247300452;2022;1.120083820145634
247300528;2015;1.2244619223071636
247300528;2019;1.5486003782763462
247300528;2020;1.5553037076564555
247300528;2021;1.5960988089237491
247300528;2022;1.7404713393178144
247300668;2015;0.4818797973266178
247300668;2019;0.6424318056929501
247300668;2020;0.6715170400160068
247300668;2021;0.7491759341078624
247300668;2022;1.056055749872813
247300676;2015;0.470798760655675
247300676;2019;0.5255057995332292
247300676;2020;0.5586346640483302
247300676;2021;0.6107010629585912
247300676;2022;0.6228916759489999
247300817;2015;0.7905722636874617
247300817;2019;1.0070456030981112
247300817;2020;1.0224891839132988
247300817;2021;1.0318150519069618
247300817;2022;1.0861300787551582
247400047;2015;0.6968644371947578
247400047;2019;0.8210723103754136
247400047;2020;0.815267169190059
247400047;2021;0.8223600439288565
247400047;2022;0.9496011804440857
247400112;2015;1.380454242584864
247400112;2019;1.9406972480419464
247400112;2020;2.2017731677801975
247400112;2021;2.1983874762247666
247400112;2022;2.5266449782595943
247400567;2015;1.1959513315878096
247400567;2019;1.9839668374653399
247400567;2020;2.1616535099405216
247400567;2021;2.400107125046602
247400567;2022;2.2808915004638255
247400583;2015;1.6292626749090622
247400583;2019;1.7920786732418523
247400583;2020;1.8379239058265922
247400583;2021;2.0112349937546647
247400583;2022;2.1748335373055228
247400617;2015;1.009972147011494
247400617;2019;1.2631057834483723
247400617;2020;1.3112338179849024
247400617;2021;1.2360533810007053
247400617;2022;1.2287879854351254
247400666;2015;1.522200314255445
247400666;2019;1.7805813056084192
247400666;2020;1.8628933583126743
247400666;2021;1.8524577011586263
247400666;2022;2.0577825036159343
247400682;2015;0.6875396281778146
247400682;2019;0.8206988259668008
247400682;2020;0.8704001980279262
247400682;2021;0.8727161369451801
247400682;2022;0.8990747324088129
247400690;2015;2.99293803324281
247400690;2019;4.064654599884687
247400690;2020;4.253459440741137
247400690;2021;4.238764559908874
247400690;2022;4.974097985813005
247400724;2015;1.7313508832690405
247400724;2019;1.9663394277816182
247400724;2020;2.034161007381435
247400724;2021;2.0686347582187072
247400724;2022;2.454372995241966
247400740;2015;3.098494905803794
247400740;2019;3.982179660576493
247400740;2020;4.154192124383297
247400740;2021;4.0763789008701306
247400740;2022;4.357387534058172
247400773;2015;0.9279376610769914
247400773;2019;1.0370786092489521
247400773;2020;0.9993225806394184
247400773;2021;3.766543167406935
247400773;2022;4.573199964118476
248400335;2015;0.0905060606390796
248400335;2019;0.0993658032487537
248400335;2020;0.1089267438848225
248400335;2021;0.1039798174677925
248400335;2022;0.0986949118384673
